IE48A HW2
…
   #add lag  column
   mutate(hourly_lag_MCP = lag(hourly_avg_MCP,1),hourly_lag_SMP=lag(hourly_avg_SMP,1))%>%
   #find average hourly percentage change
   mutate(perc_change_MCP=hourly_avg_MCP/hourly_lag_MCP-1,perc_change_SMP=hourly_avg_SMP/hourly_lag_SMP-1) 

## `summarise()` ungrouping output (override with `.groups` argument)

   new_data3 

## # A tibble: 24 x 7
##     hour hourly_avg_MCP hourly_avg_SMP hourly_lag_MCP hourly_lag_SMP
##    <int>          <dbl>          <dbl>          <dbl>          <dbl>
##  1     0           297.           294.            NA             NA 
##  2     1           306.           308.           297.           294.
##  3     2           298.           297.           306.           308.
##  4     3           284.           283.           298.           297.
##  5     4           285.           280.           284.           283.
##  6     5           247.           248.           285.           280.
##  7     6           213.           213.           247.           248.
##  8     7           269.           260.           213.           213.
##  9     8           295.           278.           269.           260.
## 10     9           288.           291.           295.           278.
## # ... with 14 more rows, and 2 more variables: perc_change_MCP <dbl>,
## #   perc_change_SMP <dbl>
…
